{
    "workbench": {
        "colorTheme": "One Dark Pro",
        "colorCustomizations": {
            "editor.background": "#151b22",
            "editorGroupHeader.border": "#151b22",
            "activityBar.background": "#151b22",
            "activityBar.border": "#151b22",
            "badge.background": "#08141b",
            "activityBar.foreground": "#d75fd7",
            "activityBar.activeBorder": "#d75fd7",
            "activityBar.activeBackground": "#151b22",
            "sideBar.border": "#151b22",
            "sideBar.background": "#151b22",
            "sideBarSectionHeader.border": "#151b22",
            "sideBarSectionHeader.background": "#151b22",
            "tab.activeBorder": "#151b22",
            "tab.activeBackground": "#151b22",
            "tab.inactiveBackground": "#08141b",
            "tab.border": "#151b22",
            "contrastBorder": "#151b22",
            "editorGroupHeader.tabsBackground": "#151b22",
            "editorGroupHeader.tabsBorder": "#151b22",
            "notificationCenter.border": "#151b22",
            "dropdown.background": "#08141b",
            "dropdown.border": "#d75fd7",
            "notifications.background": "#08141b",
            "widget.shadow": "#08141b00",
            "button.background": "#d75fd744",
            "button.hoverBackground": "#d75fd7",
            "input.border": "#d75fd7",
            "input.background": "#08141b",
            "panel.border": "#151b22",
            "statusBar.border": "#151b22",
            "titleBar.border": "#151b22",
            "terminal.border": "#151b22",
            "terminal.background": "#151b22",
            "titleBar.activeBackground": "#151b22",
            "scrollbarSlider.background": "#d75fd744",
            "scrollbarSlider.hoverBackground": "#d75fd7",
            "scrollbarSlider.activeBackground": "#d75fd7",
            "statusBar.background": "#151b22",
            "editorGroup.border": "#151b22",
            "panelTitle.activeBorder": "#d75fd7",
            "panel.background": "#151b22",
            "editorLineNumber.activeForeground": "#d75fd7"
        }
    }
}    
