{
    "workbench": {
        "colorTheme": "Palenight Theme",
        "colorCustomizations": {
            "editor.background": "#050d12",
            "ditorGroupHeader.border": "#050d12",
            "activityBar.background": "#050d12",
            "activityBar.border": "#050d12",
            "badge.background": "#08141b",
            "activityBar.foreground": "#c792ea",
            "activityBar.activeBorder": "#c792ea",
            "activityBar.activeBackground": "#050d12",
            "sideBar.border": "#050d12",
            "sideBar.background": "#050d12",
            "sideBarSectionHeader.border": "#050d12",
            "sideBarSectionHeader.background": "#050d12",
            "tab.activeBorder": "#050d12",
            "tab.activeBackground": "#050d12",
            "tab.inactiveBackground": "#08141b",
            "tab.border": "#050d12",
            "contrastBorder": "#050d12",
            "editorGroupHeader.tabsBackground": "#050d12",
            "editorGroupHeader.tabsBorder": "#050d12",
            "notificationCenter.border": "#050d12",
            "dropdown.background": "#08141b",
            "dropdown.border": "#c792ea",
            "notifications.background": "#08141b",
            "widget.shadow": "#08141b00",
            "button.background": "#c792ea44",
            "button.hoverBackground": "#c792ea",
            "input.border": "#c792ea",
            "input.background": "#08141b",
            "panel.border": "#050d12",
            "statusBar.border": "#050d12",
            "titleBar.border": "#050d12",
            "terminal.border": "#050d12",
            "terminal.background": "#050d12",
            "titleBar.activeBackground": "#050d12",
            "scrollbarSlider.background": "#c792ea44",
            "scrollbarSlider.hoverBackground": "#c792ea",
            "scrollbarSlider.activeBackground": "#c792ea",
            "statusBar.background": "#050d12",
            "editorGroup.border": "#050d12",
            "panelTitle.activeBorder": "#c792ea",
            "panel.background": "#050d12",
            "editorLineNumber.activeForeground": "#c792ea"
    }

    }
}
