<?xml version="1.0" encoding="UTF-8" standalone="no"?>
<svg viewBox="0 0 50 50"
 xmlns="http://www.w3.org/2000/svg" xmlns:xlink="http://www.w3.org/1999/xlink"  version="1.2" baseProfile="tiny">
<title>Qt SVG Document</title>
<desc>Generated with Qt</desc>
<defs>
</defs>
<g fill="none" stroke="black" stroke-width="1" fill-rule="evenodd" stroke-linecap="square" stroke-linejoin="bevel" >

<g fill="#000000" fill-opacity="1" stroke="none" transform="matrix(2.27273,0,0,2.27273,0,0)"
font-family="Cantarell" font-size="10" font-weight="400" font-style="normal" 
opacity="0.001" >
<rect x="0" y="0" width="22" height="22"/>
</g>

<g fill="#eff0f1" fill-opacity="1" stroke="none" transform="matrix(2.27273,0,0,2.27273,0,0)"
font-family="Cantarell" font-size="10" font-weight="400" font-style="normal" 
opacity="0.5" >
<path vector-effect="none" fill-rule="nonzero" d="M11,3 C6.58172,3 3,6.58172 3,11 C3,15.4183 6.58172,19 11,19 C15.4183,19 19,15.4183 19,11 C19,6.58172 15.4183,3 11,3 M11,4 C14.866,4 18,7.13401 18,11 C18,14.866 14.866,18 11,18 C7.13401,18 4,14.866 4,11 C4,7.13401 7.13401,4 11,4 M13.9805,7 C13.7173,7.00636 13.4673,7.1166 13.2852,7.30664 L11,9.5918 L8.71484,7.30664 C8.52775,7.11373 8.27068,7.00456 8.00195,7.00391 C7.59624,7.00364 7.23088,7.24937 7.07813,7.62523 C6.92539,8.00108 7.01576,8.43202 7.30664,8.71484 L9.5918,11 L7.30664,13.2852 C7.03867,13.5332 6.92785,13.908 7.01782,14.2619 C7.1078,14.6158 7.38415,14.8922 7.73807,14.9822 C8.09198,15.0722 8.46677,14.9613 8.71484,14.6934 L11,12.4082 L13.2852,14.6934 C13.5332,14.9613 13.908,15.0722 14.2619,14.9822 C14.6158,14.8922 14.8922,14.6158 14.9822,14.2619 C15.0722,13.908 14.9613,13.5332 14.6934,13.2852 L12.4082,11 L14.6934,8.71484 C14.9896,8.43025 15.0808,7.99304 14.9231,7.61371 C14.7655,7.23439 14.3912,6.99071 13.9805,7 "/>
</g>

<g fill="none" stroke="#000000" stroke-opacity="1" stroke-width="1" stroke-linecap="square" stroke-linejoin="bevel" transform="matrix(1,0,0,1,0,0)"
font-family="Cantarell" font-size="10" font-weight="400" font-style="normal" 
>
</g>
</g>
</svg>
