<?xml version="1.0" encoding="UTF-8" standalone="no"?>
<svg viewBox="0 0 50 50"
 xmlns="http://www.w3.org/2000/svg" xmlns:xlink="http://www.w3.org/1999/xlink"  version="1.2" baseProfile="tiny">
<title>Qt SVG Document</title>
<desc>Generated with Qt</desc>
<defs>
</defs>
<g fill="none" stroke="black" stroke-width="1" fill-rule="evenodd" stroke-linecap="square" stroke-linejoin="bevel" >

<g fill="#000000" fill-opacity="1" stroke="none" transform="matrix(2.27273,0,0,2.27273,0,0)"
font-family="Cantarell" font-size="10" font-weight="400" font-style="normal" 
opacity="0.001" >
<rect x="0" y="0" width="22" height="22"/>
</g>

<g fill="#ffffff" fill-opacity="1" stroke="none" transform="matrix(2.27273,0,0,2.27273,0,0)"
font-family="Cantarell" font-size="10" font-weight="400" font-style="normal" 
opacity="0.1" >
<path vector-effect="none" fill-rule="evenodd" d="M0,5.94 C0,2.65943 2.65943,0 5.94,0 L16.06,0 C19.3406,0 22,2.65943 22,5.94 L22,16.06 C22,19.3406 19.3406,22 16.06,22 L5.94,22 C2.65943,22 0,19.3406 0,16.06 L0,5.94"/>
</g>

<g fill="#eff0f1" fill-opacity="1" stroke="none" transform="matrix(2.27273,0,0,2.27273,-50,0)"
font-family="Cantarell" font-size="10" font-weight="400" font-style="normal" 
>
<path vector-effect="none" fill-rule="nonzero" d="M33,3 C28.5817,3 25,6.58172 25,11 C25,15.4183 28.5817,19 33,19 C37.4183,19 41,15.4183 41,11 C41,6.58172 37.4183,3 33,3 M33,4 C36.866,4 40,7.13401 40,11 C40,14.866 36.866,18 33,18 C29.134,18 26,14.866 26,11 C26,7.13401 29.134,4 33,4 M33,7 C30.7909,7 29,8.79086 29,11 C29,13.2091 30.7909,15 33,15 C35.2091,15 37,13.2091 37,11 C37,8.79086 35.2091,7 33,7 M33,9 C34.1046,9 35,9.89543 35,11 C35,12.1046 34.1046,13 33,13 C31.8954,13 31,12.1046 31,11 C31,9.89543 31.8954,9 33,9 "/>
</g>

<g fill="none" stroke="#000000" stroke-opacity="1" stroke-width="1" stroke-linecap="square" stroke-linejoin="bevel" transform="matrix(1,0,0,1,0,0)"
font-family="Cantarell" font-size="10" font-weight="400" font-style="normal" 
>
</g>
</g>
</svg>
